%YAML 1.1
%TAG !u! tag:unity3d.com,2011:
--- !u!114 &11400000
MonoBehaviour:
  m_ObjectHideFlags: 0
  m_CorrespondingSourceObject: {fileID: 0}
  m_PrefabInstance: {fileID: 0}
  m_PrefabAsset: {fileID: 0}
  m_GameObject: {fileID: 0}
  m_Enabled: 1
  m_EditorHideFlags: 0
  m_Script: {fileID: 11500000, guid: 3c4badf7f00884941ab9fb7e8de7bde6, type: 3}
  m_Name: LazyHelper
  m_EditorClassIdentifier: 
  name: Lazy Volunteer
  description: Lazy volunteers create 1.2 soups per 15 seconds.
  purchaseCost: 10
  rewardPerHelper: 1.2
