%YAML 1.1
%TAG !u! tag:unity3d.com,2011:
--- !u!114 &11400000
MonoBehaviour:
  m_ObjectHideFlags: 0
  m_CorrespondingSourceObject: {fileID: 0}
  m_PrefabInstance: {fileID: 0}
  m_PrefabAsset: {fileID: 0}
  m_GameObject: {fileID: 0}
  m_Enabled: 1
  m_EditorHideFlags: 0
  m_Script: {fileID: 11500000, guid: bc85333f2fe411f44b0f111fa4f5c1a6, type: 3}
  m_Name: MediumBowl
  m_EditorClassIdentifier: 
  name: Medium Bowl
  description: This is a medium sized bowl for soup, which returns 2.5 happiness per
    soup.
  purchaseCost: 200
  rewardMod: 4
