%YAML 1.1
%TAG !u! tag:unity3d.com,2011:
--- !u!114 &11400000
MonoBehaviour:
  m_ObjectHideFlags: 0
  m_CorrespondingSourceObject: {fileID: 0}
  m_PrefabInstance: {fileID: 0}
  m_PrefabAsset: {fileID: 0}
  m_GameObject: {fileID: 0}
  m_Enabled: 1
  m_EditorHideFlags: 0
  m_Script: {fileID: 11500000, guid: 16e24c5e9367f5a4f84de209b24555c0, type: 3}
  m_Name: MediumLadle
  m_EditorClassIdentifier: 
  name: Medium Ladle
  description: This is a medium sized soup ladle. It reduces the time your volunteers
    take to hand out soup by 15%.
  purchaseCost: 200
  costReductionMod: 0.7
